%YAML 1.1
%TAG !u! tag:unity3d.com,2011:
--- !u!1 &5651064950889585836
GameObject:
  m_ObjectHideFlags: 0
  m_CorrespondingSourceObject: {fileID: 0}
  m_PrefabInstance: {fileID: 0}
  m_PrefabAsset: {fileID: 0}
  serializedVersion: 6
  m_Component:
  - component: {fileID: 5651064950889585832}
  - component: {fileID: 5651064950889585837}
  - component: {fileID: 5651064950889585833}
  m_Layer: 8
  m_Name: Log
  m_TagString: Log
  m_Icon: {fileID: 0}
  m_NavMeshLayer: 0
  m_StaticEditorFlags: 0
  m_IsActive: 1
--- !u!4 &5651064950889585832
Transform:
  m_ObjectHideFlags: 0
  m_CorrespondingSourceObject: {fileID: 0}
  m_PrefabInstance: {fileID: 0}
  m_PrefabAsset: {fileID: 0}
  m_GameObject: {fileID: 5651064950889585836}
  m_LocalRotation: {x: 0.7071068, y: 0, z: 0, w: 0.7071068}
  m_LocalPosition: {x: 0, y: 0.3, z: 3}
  m_LocalScale: {x: 0.5, y: 0.5, z: 0.5}
  m_Children:
  - {fileID: 6901918596945472775}
  m_Father: {fileID: 0}
  m_RootOrder: 0
  m_LocalEulerAnglesHint: {x: 90, y: 0, z: 0}
--- !u!136 &5651064950889585837
CapsuleCollider:
  m_ObjectHideFlags: 0
  m_CorrespondingSourceObject: {fileID: 0}
  m_PrefabInstance: {fileID: 0}
  m_PrefabAsset: {fileID: 0}
  m_GameObject: {fileID: 5651064950889585836}
  m_Material: {fileID: 0}
  m_IsTrigger: 0
  m_Enabled: 1
  m_Radius: 0.5
  m_Height: 2
  m_Direction: 1
  m_Center: {x: 0, y: 0, z: 0}
--- !u!114 &5651064950889585833
MonoBehaviour:
  m_ObjectHideFlags: 0
  m_CorrespondingSourceObject: {fileID: 0}
  m_PrefabInstance: {fileID: 0}
  m_PrefabAsset: {fileID: 0}
  m_GameObject: {fileID: 5651064950889585836}
  m_Enabled: 1
  m_EditorHideFlags: 0
  m_Script: {fileID: 11500000, guid: 3881a63c5b49dc1368bf6eb17fa11af6, type: 3}
  m_Name: 
  m_EditorClassIdentifier: 
  ItemType: 0
--- !u!1001 &1923668898725578269
PrefabInstance:
  m_ObjectHideFlags: 0
  serializedVersion: 2
  m_Modification:
    m_TransformParent: {fileID: 5651064950889585832}
    m_Modifications:
    - target: {fileID: -4216859302048453862, guid: 3134bf2222affcf4ab366fd3ea8af457,
        type: 3}
      propertyPath: m_LocalPosition.x
      value: -0
      objectReference: {fileID: 0}
    - target: {fileID: -4216859302048453862, guid: 3134bf2222affcf4ab366fd3ea8af457,
        type: 3}
      propertyPath: m_LocalPosition.y
      value: 0
      objectReference: {fileID: 0}
    - target: {fileID: -4216859302048453862, guid: 3134bf2222affcf4ab366fd3ea8af457,
        type: 3}
      propertyPath: m_LocalPosition.z
      value: 0
      objectReference: {fileID: 0}
    - target: {fileID: -4216859302048453862, guid: 3134bf2222affcf4ab366fd3ea8af457,
        type: 3}
      propertyPath: m_LocalRotation.x
      value: 0
      objectReference: {fileID: 0}
    - target: {fileID: -4216859302048453862, guid: 3134bf2222affcf4ab366fd3ea8af457,
        type: 3}
      propertyPath: m_LocalRotation.y
      value: 0
      objectReference: {fileID: 0}
    - target: {fileID: -4216859302048453862, guid: 3134bf2222affcf4ab366fd3ea8af457,
        type: 3}
      propertyPath: m_LocalRotation.z
      value: 0
      objectReference: {fileID: 0}
    - target: {fileID: -4216859302048453862, guid: 3134bf2222affcf4ab366fd3ea8af457,
        type: 3}
      propertyPath: m_LocalRotation.w
      value: 1
      objectReference: {fileID: 0}
    - target: {fileID: -4216859302048453862, guid: 3134bf2222affcf4ab366fd3ea8af457,
        type: 3}
      propertyPath: m_RootOrder
      value: 0
      objectReference: {fileID: 0}
    - target: {fileID: -4216859302048453862, guid: 3134bf2222affcf4ab366fd3ea8af457,
        type: 3}
      propertyPath: m_LocalEulerAnglesHint.x
      value: 0
      objectReference: {fileID: 0}
    - target: {fileID: -4216859302048453862, guid: 3134bf2222affcf4ab366fd3ea8af457,
        type: 3}
      propertyPath: m_LocalEulerAnglesHint.y
      value: 0
      objectReference: {fileID: 0}
    - target: {fileID: -4216859302048453862, guid: 3134bf2222affcf4ab366fd3ea8af457,
        type: 3}
      propertyPath: m_LocalEulerAnglesHint.z
      value: 0
      objectReference: {fileID: 0}
    - target: {fileID: -4216859302048453862, guid: 3134bf2222affcf4ab366fd3ea8af457,
        type: 3}
      propertyPath: m_LocalScale.y
      value: 0.87
      objectReference: {fileID: 0}
    - target: {fileID: -927199367670048503, guid: 3134bf2222affcf4ab366fd3ea8af457,
        type: 3}
      propertyPath: m_Name
      value: Wood
      objectReference: {fileID: 0}
    m_RemovedComponents: []
  m_SourcePrefab: {fileID: 100100000, guid: 3134bf2222affcf4ab366fd3ea8af457, type: 3}
--- !u!4 &6901918596945472775 stripped
Transform:
  m_CorrespondingSourceObject: {fileID: -4216859302048453862, guid: 3134bf2222affcf4ab366fd3ea8af457,
    type: 3}
  m_PrefabInstance: {fileID: 1923668898725578269}
  m_PrefabAsset: {fileID: 0}
